Chapter 2 Regression II: linear regression | _main.knit
…
There are, however, a wide variety of cases where the predictor variables do have a
meaningful relationship with the response variable, but that relationship does not fit
the assumptions of the regression method you have chosen. For example, a data frame df
with two variables—x and y—with a nonlinear relationship between the two variables
will not be fully captured by simple linear regression, as shown in Figure 2.11.

df

## # A tibble: 100 × 2
##        x      y
##    <dbl>  <dbl>
##  1 0.102 0.0720
##  2 0.800 0.532 
##  3 0.478 0.148 
##  4 0.972 1.01  
##  5 0.846 0.677 
##  6 0.405 0.157 
##  7 0.879 0.768 
##  8 0.130 0.0402
##  9 0.852 0.576 
## 10 0.180 0.0847
## # ℹ 90 more rows
…
